<?xml version="1.0" encoding="UTF-8" standalone="no"?>
<!-- Created with Inkscape (http://www.inkscape.org/) -->

<svg
   xmlns:dc="http://purl.org/dc/elements/1.1/"
   xmlns:cc="http://creativecommons.org/ns#"
   xmlns:rdf="http://www.w3.org/1999/02/22-rdf-syntax-ns#"
   xmlns:svg="http://www.w3.org/2000/svg"
   xmlns="http://www.w3.org/2000/svg"
   xmlns:sodipodi="http://sodipodi.sourceforge.net/DTD/sodipodi-0.dtd"
   xmlns:inkscape="http://www.inkscape.org/namespaces/inkscape"
   width="256"
   height="256"
   id="svg2"
   version="1.1"
   inkscape:version="0.92.4 5da689c313, 2019-01-14"
   sodipodi:docname="org.freedesktop.Bustle.svg">
  <defs
     id="defs4">
    <inkscape:path-effect
       is_visible="true"
       id="path-effect4126"
       effect="spiro" />
    <inkscape:path-effect
       is_visible="true"
       id="path-effect4123"
       effect="spiro" />
    <inkscape:path-effect
       is_visible="true"
       id="path-effect4120"
       effect="spiro" />
    <inkscape:path-effect
       is_visible="true"
       id="path-effect4117"
       effect="spiro" />
    <inkscape:path-effect
       effect="spiro"
       id="path-effect3770"
       is_visible="true" />
    <inkscape:path-effect
       effect="spiro"
       id="path-effect3763"
       is_visible="true" />
    <inkscape:path-effect
       effect="spiro"
       id="path-effect3759"
       is_visible="true" />
    <inkscape:path-effect
       effect="spiro"
       id="path-effect3770-1"
       is_visible="true" />
    <inkscape:path-effect
       effect="spiro"
       id="path-effect3770-3"
       is_visible="true" />
    <inkscape:path-effect
       effect="spiro"
       id="path-effect3759-7"
       is_visible="true" />
    <inkscape:path-effect
       effect="spiro"
       id="path-effect3763-2"
       is_visible="true" />
    <inkscape:path-effect
       effect="spiro"
       id="path-effect3770-6"
       is_visible="true" />
    <inkscape:path-effect
       effect="spiro"
       id="path-effect3770-3-1"
       is_visible="true" />
    <inkscape:path-effect
       effect="spiro"
       id="path-effect3770-6-2"
       is_visible="true" />
    <inkscape:path-effect
       effect="spiro"
       id="path-effect3763-2-7"
       is_visible="true" />
    <inkscape:path-effect
       effect="spiro"
       id="path-effect3770-3-1-2"
       is_visible="true" />
    <inkscape:path-effect
       effect="spiro"
       id="path-effect3759-7-2"
       is_visible="true" />
    <filter
       id="filter4104"
       inkscape:label="Chalk and sponge"
       inkscape:menu="Distort"
       inkscape:menu-tooltip="Low turbulence gives sponge look and high turbulence chalk"
       width="1.6"
       height="2"
       y="-0.5"
       x="-0.30000001"
       style="color-interpolation-filters:sRGB">
      <feTurbulence
         id="feTurbulence4106"
         baseFrequency="0.4"
         type="fractalNoise"
         seed="0"
         numOctaves="5"
         result="result1" />
      <feOffset
         id="feOffset4108"
         dx="-5"
         dy="-5"
         result="result2" />
      <feDisplacementMap
         id="feDisplacementMap4110"
         in2="result1"
         xChannelSelector="R"
         yChannelSelector="G"
         scale="30"
         in="SourceGraphic" />
    </filter>
    <filter
       id="filter4183"
       inkscape:label="Chalk and sponge"
       inkscape:menu="Distort"
       inkscape:menu-tooltip="Low turbulence gives sponge look and high turbulence chalk"
       width="1.6"
       height="2"
       y="-0.5"
       x="-0.30000001"
       style="color-interpolation-filters:sRGB">
      <feTurbulence
         id="feTurbulence4185"
         baseFrequency="0.4"
         type="fractalNoise"
         seed="0"
         numOctaves="5"
         result="result1" />
      <feOffset
         id="feOffset4187"
         dx="-5"
         dy="-5"
         result="result2" />
      <feDisplacementMap
         id="feDisplacementMap4189"
         in2="result1"
         xChannelSelector="R"
         yChannelSelector="G"
         scale="30"
         in="SourceGraphic" />
    </filter>
    <inkscape:path-effect
       is_visible="true"
       id="path-effect4117-2"
       effect="spiro" />
  </defs>
  <sodipodi:namedview
     id="base"
     pagecolor="#ffffff"
     bordercolor="#666666"
     borderopacity="1.0"
     inkscape:pageopacity="0.0"
     inkscape:pageshadow="2"
     inkscape:zoom="9.2695312"
     inkscape:cx="128"
     inkscape:cy="71.987112"
     inkscape:document-units="px"
     inkscape:current-layer="layer1"
     showgrid="false"
     inkscape:window-width="3200"
     inkscape:window-height="1671"
     inkscape:window-x="0"
     inkscape:window-y="55"
     inkscape:window-maximized="1"
     fit-margin-top="1"
     fit-margin-left="0"
     fit-margin-right="0"
     fit-margin-bottom="0">
    <inkscape:grid
       type="xygrid"
       id="grid3834"
       empspacing="5"
       visible="true"
       enabled="true"
       snapvisiblegridlinesonly="true"
       originx="-232.64974"
       originy="-799.15823"
       spacingx="1"
       spacingy="1" />
  </sodipodi:namedview>
  <metadata
     id="metadata7">
    <rdf:RDF>
      <cc:Work
         rdf:about="">
        <dc:format>image/svg+xml</dc:format>
        <dc:type
           rdf:resource="http://purl.org/dc/dcmitype/StillImage" />
        <dc:title></dc:title>
      </cc:Work>
    </rdf:RDF>
  </metadata>
  <g
     inkscape:label="Layer 1"
     inkscape:groupmode="layer"
     id="layer1"
     transform="translate(-232.64974,2.7960645)">
    <g
       id="g1412"
       transform="matrix(0.41816393,0,0,0.41816393,209.83903,7.3082603)">
      <path
         inkscape:connector-curvature="0"
         id="path3802-8"
         d="m 70.761814,288.36996 c -0.01207,-1.2669 -0.02449,-2.53589 -0.02449,-3.80671 0,-159.41492 129.271656,-288.6461129 288.736206,-288.6461129 159.46457,0 288.73621,129.2311929 288.73621,288.6461129 v 0 0 c 0,1.27082 -0.009,2.53969 -0.0245,3.80671"
         style="fill:none;stroke:#74b674;stroke-width:27.59247017;stroke-miterlimit:4;stroke-dasharray:82.77741051, 27.59247017;stroke-dashoffset:27.59247017;stroke-opacity:1" />
      <ellipse
         transform="matrix(0.50880116,0,0,0.55776489,164.13818,45.848517)"
         id="path2985-7"
         style="fill:none;stroke:#000000;stroke-width:34.42315674;stroke-miterlimit:10;stroke-dasharray:none;stroke-dashoffset:0;stroke-opacity:1"
         cx="381.42856"
         cy="433.79074"
         rx="130"
         ry="118.57143" />
      <path
         inkscape:connector-curvature="0"
         inkscape:original-d="M 417.41556,287.80173 H 628.85727"
         inkscape:path-effect="#path-effect3759-7"
         id="path3757-7"
         d="M 417.41556,287.80173 H 628.85727"
         style="fill:none;stroke:#000000;stroke-width:18.45480156;stroke-linecap:butt;stroke-linejoin:miter;stroke-miterlimit:4;stroke-dasharray:none;stroke-opacity:1" />
      <path
         inkscape:connector-curvature="0"
         inkscape:original-d="m 294.08479,287.66116 -211.718251,0.2812"
         inkscape:path-effect="#path-effect3763-2"
         id="path3761-7"
         d="m 294.08479,287.66116 -211.718251,0.2812"
         style="fill:none;stroke:#000000;stroke-width:18.17925262;stroke-linecap:butt;stroke-linejoin:miter;stroke-miterlimit:4;stroke-dasharray:none;stroke-opacity:1" />
      <path
         sodipodi:nodetypes="ccc"
         inkscape:connector-curvature="0"
         inkscape:original-d="M 200.97285,226.67532 77.897224,289.6408 200.97285,348.92819"
         inkscape:path-effect="#path-effect3770-6"
         id="path3768-2"
         d="M 200.97285,226.67532 77.897224,289.6408 200.97285,348.92819"
         style="fill:none;stroke:#000000;stroke-width:18.33793068;stroke-linecap:butt;stroke-linejoin:miter;stroke-miterlimit:4;stroke-dasharray:none;stroke-opacity:1" />
      <path
         sodipodi:nodetypes="ccc"
         inkscape:connector-curvature="0"
         inkscape:original-d="M 520.66838,225.39683 643.74401,288.36232 520.66838,347.6497"
         inkscape:path-effect="#path-effect3770-3-1"
         id="path3768-9-7"
         d="M 520.66838,225.39683 643.74401,288.36232 520.66838,347.6497"
         style="fill:none;stroke:#000000;stroke-width:18.33793068;stroke-linecap:butt;stroke-linejoin:miter;stroke-miterlimit:4;stroke-dasharray:none;stroke-opacity:1" />
    </g>
  </g>
</svg>
